^C:\USERS\ESAM\DOCUMENTS\VISUAL STUDIO 2015\PROJECTS\SIMPLETRON\SIMPLETRON\STDAFX.CPP
/c /ZI /nologo /W3 /WX- /sdl /Od /Oy- /D WIN32 /D _DEBUG /D _CONSOLE /D _CRT_SECURE_NO_WARNINGS /D _UNICODE /D UNICODE /Gm /EHsc /RTC1 /MDd /GS /Zc:wchar_t /Zc:forScope /Zc:inline /Yc"stdafx.h" /Fp"DEBUG\SIMPLETRON.PCH" /Fo"DEBUG\\" /Fd"DEBUG\VC140.PDB" /Gd /TP /analyze- C:\USERS\ESAM\DOCUMENTS\VISUAL STUDIO 2015\PROJECTS\SIMPLETRON\SIMPLETRON\STDAFX.CPP
^C:\USERS\ESAM\DOCUMENTS\VISUAL STUDIO 2015\PROJECTS\SIMPLETRON\SIMPLETRON\SIMPLETRON.CPP
/c /ZI /nologo /W3 /WX- /sdl /Od /Oy- /D WIN32 /D _DEBUG /D _CONSOLE /D _CRT_SECURE_NO_WARNINGS /D _UNICODE /D UNICODE /Gm /EHsc /RTC1 /MDd /GS /Zc:wchar_t /Zc:forScope /Zc:inline /Yu"stdafx.h" /Fp"DEBUG\SIMPLETRON.PCH" /Fo"DEBUG\\" /Fd"DEBUG\VC140.PDB" /Gd /TP /analyze- C:\USERS\ESAM\DOCUMENTS\VISUAL STUDIO 2015\PROJECTS\SIMPLETRON\SIMPLETRON\SIMPLETRON.CPP
^C:\USERS\ESAM\SOURCE\REPOS\SIMPLETON2\SIMPLETRON\SIMPLETRON\STDAFX.CPP
/c /ZI /nologo /W3 /WX- /sdl /Od /Oy- /D WIN32 /D _DEBUG /D _CONSOLE /D _CRT_SECURE_NO_WARNINGS /D _UNICODE /D UNICODE /Gm /EHsc /RTC1 /MDd /GS /Zc:wchar_t /Zc:forScope /Zc:inline /Yc"stdafx.h" /Fp"DEBUG\SIMPLETRON.PCH" /Fo"DEBUG\\" /Fd"DEBUG\VC140.PDB" /Gd /TP /analyze- C:\USERS\ESAM\SOURCE\REPOS\SIMPLETON2\SIMPLETRON\SIMPLETRON\STDAFX.CPP
^C:\USERS\ESAM\SOURCE\REPOS\SIMPLETON2\SIMPLETRON\SIMPLETRON\SIMPLETRON.CPP
/c /ZI /nologo /W3 /WX- /sdl /Od /Oy- /D WIN32 /D _DEBUG /D _CONSOLE /D _CRT_SECURE_NO_WARNINGS /D _UNICODE /D UNICODE /Gm /EHsc /RTC1 /MDd /GS /Zc:wchar_t /Zc:forScope /Zc:inline /Yu"stdafx.h" /Fp"DEBUG\SIMPLETRON.PCH" /Fo"DEBUG\\" /Fd"DEBUG\VC140.PDB" /Gd /TP /analyze- C:\USERS\ESAM\SOURCE\REPOS\SIMPLETON2\SIMPLETRON\SIMPLETRON\SIMPLETRON.CPP
