^C:\USERS\ESAM\DOCUMENTS\VISUAL STUDIO 2015\PROJECTS\SIMPLETRON\SIMPLETRON\STDAFX.CPP
C:\USERS\ESAM\DOCUMENTS\VISUAL STUDIO 2015\PROJECTS\SIMPLETRON\SIMPLETRON\DEBUG\SIMPLETRON.PCH
C:\USERS\ESAM\DOCUMENTS\VISUAL STUDIO 2015\PROJECTS\SIMPLETRON\SIMPLETRON\DEBUG\VC140.PDB
C:\USERS\ESAM\DOCUMENTS\VISUAL STUDIO 2015\PROJECTS\SIMPLETRON\SIMPLETRON\DEBUG\VC140.IDB
C:\USERS\ESAM\DOCUMENTS\VISUAL STUDIO 2015\PROJECTS\SIMPLETRON\SIMPLETRON\DEBUG\STDAFX.OBJ
^C:\USERS\ESAM\DOCUMENTS\VISUAL STUDIO 2015\PROJECTS\SIMPLETRON\SIMPLETRON\SIMPLETRON.CPP
C:\USERS\ESAM\DOCUMENTS\VISUAL STUDIO 2015\PROJECTS\SIMPLETRON\SIMPLETRON\DEBUG\VC140.PDB
C:\USERS\ESAM\DOCUMENTS\VISUAL STUDIO 2015\PROJECTS\SIMPLETRON\SIMPLETRON\DEBUG\VC140.IDB
C:\USERS\ESAM\DOCUMENTS\VISUAL STUDIO 2015\PROJECTS\SIMPLETRON\SIMPLETRON\DEBUG\SIMPLETRON.OBJ
^C:\USERS\ESAM\SOURCE\REPOS\SIMPLETON2\SIMPLETRON\SIMPLETRON\STDAFX.CPP
C:\USERS\ESAM\SOURCE\REPOS\SIMPLETON2\SIMPLETRON\SIMPLETRON\DEBUG\SIMPLETRON.PCH
C:\USERS\ESAM\SOURCE\REPOS\SIMPLETON2\SIMPLETRON\SIMPLETRON\DEBUG\VC140.PDB
C:\USERS\ESAM\SOURCE\REPOS\SIMPLETON2\SIMPLETRON\SIMPLETRON\DEBUG\VC140.IDB
C:\USERS\ESAM\SOURCE\REPOS\SIMPLETON2\SIMPLETRON\SIMPLETRON\DEBUG\STDAFX.OBJ
^C:\USERS\ESAM\SOURCE\REPOS\SIMPLETON2\SIMPLETRON\SIMPLETRON\SIMPLETRON.CPP
C:\USERS\ESAM\SOURCE\REPOS\SIMPLETON2\SIMPLETRON\SIMPLETRON\DEBUG\VC140.PDB
C:\USERS\ESAM\SOURCE\REPOS\SIMPLETON2\SIMPLETRON\SIMPLETRON\DEBUG\VC140.IDB
C:\USERS\ESAM\SOURCE\REPOS\SIMPLETON2\SIMPLETRON\SIMPLETRON\DEBUG\SIMPLETRON.OBJ
